<svg width="500" height="300" viewBox="0 0 500 300" fill="none" xmlns="http://www.w3.org/2000/svg">
<ellipse opacity="0.2" cx="250" cy="283.856" rx="250" ry="16.1435" fill="#98C3E8"/>
<path d="M416.892 236.655C411.91 235.415 420.006 250.605 424.677 258.355C428.223 264.555 435.576 263.78 435.576 259.905C435.576 256.03 423.12 238.205 416.892 236.655Z" fill="url(#paint0_linear)"/>
<path d="M453.532 238.169C453.315 233.061 440.974 245.093 434.831 251.748C429.862 256.888 432.691 263.689 436.425 262.592C440.158 261.494 453.802 244.554 453.532 238.169Z" fill="url(#paint1_linear)"/>
<path d="M435.539 231.447C432.303 227.477 429.614 244.463 428.673 253.453C427.768 260.53 434.115 264.306 436.453 261.207C438.79 258.109 439.584 236.41 435.539 231.447Z" fill="url(#paint2_linear)"/>
<path d="M86.0303 279.777L88.3658 271.252H81.3594L70.4604 285.202L86.0303 279.777Z" fill="#6FCF97"/>
<path d="M39.3206 285.202L45.5485 279.777L40.0991 275.902L22.9722 285.202H39.3206Z" fill="#6FCF97"/>
<path d="M185.678 109.276L181.007 120.126L178.672 123.226L170.887 125.551L170.108 117.026L175.558 103.851L185.678 109.276Z" fill="#F2994A"/>
<path d="M209.033 113.925L211.369 117.025L217.597 113.925L214.483 108.5C212.147 104.625 207.709 99.4314 205.141 96.8751C202.805 94.5501 203.065 96.1 202.805 97.65L207.476 103.85C207.476 103.85 205.562 105.496 205.141 106.95C204.628 108.719 204.897 110.066 205.919 111.6C206.759 112.862 209.033 113.925 209.033 113.925Z" fill="url(#paint3_linear)"/>
<path d="M176.335 132.525L180.228 137.951L187.234 132.525C185.158 130.2 181.006 125.395 181.006 124.775V120.125C179.449 120.642 177.2 122.322 174.778 121.675C172.287 121.01 171.145 118.575 170.107 117.025C170.107 117.025 168.536 117.793 167.772 118.575C165.228 121.178 165.95 124.729 167.772 127.875C169.674 131.161 176.335 132.525 176.335 132.525Z" fill="url(#paint4_linear)"/>
<path d="M217.597 113.926L246.409 141.713L230.832 145.701L211.369 117.026L217.597 113.926Z" fill="url(#paint5_linear)"/>
<path d="M265.086 127.101C262.595 121.521 271.833 113.409 276.764 110.051L297.783 134.851L287.662 148.026L279.878 165.076L267.422 148.026L272.093 137.951C270.795 136.659 267.578 132.681 265.086 127.101Z" fill="url(#paint6_linear)"/>
<path d="M45.5491 279.002L40.0996 275.902L118.728 199.177H180.229L193.463 224.752L112.5 239.477L45.5491 279.002Z" fill="url(#paint7_linear)"/>
<path opacity="0.2" d="M190.634 224.586L112.382 239.503L99.063 246.962L122.372 200.553L190.634 224.586Z" fill="black"/>
<path d="M212.925 183.677C207.942 186.777 198.652 189.102 195.019 189.877L210.589 211.577L258.078 198.402L277.54 152.676L269.755 142.601C266.382 142.085 257.611 140.121 252.628 139.501C246.4 138.726 216.039 148.801 210.589 148.801C206.23 148.801 193.203 137.951 187.234 132.526L180.228 137.951C185.418 144.926 197.511 159.497 204.361 161.977C212.925 165.077 236.28 158.877 234.723 161.977C233.166 165.077 219.153 179.802 212.925 183.677Z" fill="url(#paint8_linear)"/>
<path opacity="0.2" d="M243.911 164.917C241.248 171.547 221.712 180.387 212.278 183.978C222.267 177.348 229.76 168.232 234.754 162.431C239.194 160.774 246.575 158.287 243.911 164.917Z" fill="black"/>
<path d="M88.3668 271.251H81.3604C88.6263 242.059 105.027 183.676 112.5 183.676C119.974 183.676 170.628 187.809 195.021 189.876L208.255 206.926L173.152 222.928L124.956 212.351L88.3668 271.251Z" fill="url(#paint9_linear)"/>
<path d="M190.35 280.552C145.198 282.877 139.748 273.577 135.856 266.602C131.185 252.652 135.856 243.352 159.211 229.402C182.565 215.452 211.37 201.502 234.725 188.326C258.08 175.151 293.89 112.376 330.48 106.176C367.069 99.9759 389.645 146.476 398.209 195.302C406.772 244.127 380.303 272.027 370.962 272.027C361.62 272.027 235.503 278.227 190.35 280.552Z" fill="url(#paint10_linear)"/>
<path d="M276.763 127.101C271.78 125.241 274.687 115.475 276.763 110.825C279.325 102.3 296.225 87.5753 307.902 85.2502C319.58 82.9252 335.149 96.1003 335.149 104.625C335.149 113.15 335.149 117.8 346.048 124C356.947 130.201 359.283 146.476 347.605 153.451C335.928 160.426 337.485 155.001 320.358 161.201C303.231 167.401 293.889 196.076 286.883 183.676C279.876 171.276 291.554 172.051 284.547 163.526C277.541 155.001 294.668 141.826 293.889 135.626C293.111 129.426 282.991 129.426 276.763 127.101Z" fill="url(#paint11_linear)"/>
<rect x="55.4058" y="95.5156" width="60.7227" height="44.9503" fill="#5A98D0"/>
<path d="M79.2161 116.758C81.1621 120.565 84.2972 123.673 88.1215 125.624L91.0945 122.664C91.4594 122.301 91.9999 122.18 92.4729 122.341C93.9864 122.839 95.6215 123.108 97.2972 123.108C98.0404 123.108 98.6485 123.713 98.6485 124.453V129.148C98.6485 129.888 98.0404 130.494 97.2972 130.494C84.608 130.494 74.3242 120.256 74.3242 107.624C74.3242 106.884 74.9323 106.278 75.6756 106.278H80.4053C81.1485 106.278 81.7566 106.884 81.7566 107.624C81.7566 109.305 82.0269 110.92 82.5269 112.426C82.6756 112.897 82.5675 113.422 82.1891 113.799L79.2161 116.758Z" fill="white"/>
<rect x="86.4868" width="60.7227" height="44.9503" fill="#5A98D0"/>
<path d="M128.378 12.1074H106.756C105.269 12.1074 104.067 13.3182 104.067 14.798L104.053 30.9415C104.053 32.4213 105.269 33.6321 106.756 33.6321H128.378C129.864 33.6321 131.08 32.4213 131.08 30.9415V14.798C131.08 13.3182 129.864 12.1074 128.378 12.1074ZM128.378 17.4886L117.567 24.215L106.756 17.4886V14.798L117.567 21.5245L128.378 14.798V17.4886Z" fill="white"/>
<rect x="206.756" width="60.7227" height="44.9503" fill="#5A98D0"/>
<path d="M236.474 9.41699C229.014 9.41699 222.974 15.4439 222.974 22.8699C222.974 30.2959 229.014 36.3228 236.474 36.3228C243.947 36.3228 250.001 30.2959 250.001 22.8699C250.001 15.4439 243.947 9.41699 236.474 9.41699ZM245.838 17.4887H241.852C241.42 15.8071 240.798 14.1928 239.987 12.6995C242.474 13.547 244.541 15.269 245.838 17.4887ZM236.487 12.1614C237.609 13.7757 238.487 15.565 239.068 17.4887H233.906C234.487 15.565 235.366 13.7757 236.487 12.1614ZM226.028 25.5605C225.811 24.6995 225.676 23.7982 225.676 22.8699C225.676 21.9417 225.811 21.0403 226.028 20.1793H230.595C230.487 21.0672 230.406 21.9551 230.406 22.8699C230.406 23.7847 230.487 24.6726 230.595 25.5605H226.028ZM227.136 28.2511H231.122C231.555 29.9327 232.176 31.547 232.987 33.0403C230.501 32.1928 228.433 30.4843 227.136 28.2511ZM231.122 17.4887H227.136C228.433 15.2556 230.501 13.547 232.987 12.6995C232.176 14.1928 231.555 15.8071 231.122 17.4887ZM236.487 33.5784C235.366 31.9641 234.487 30.1748 233.906 28.2511H239.068C238.487 30.1748 237.609 31.9641 236.487 33.5784ZM239.649 25.5605H233.325C233.203 24.6726 233.109 23.7847 233.109 22.8699C233.109 21.9551 233.203 21.0538 233.325 20.1793H239.649C239.771 21.0538 239.866 21.9551 239.866 22.8699C239.866 23.7847 239.771 24.6726 239.649 25.5605ZM239.987 33.0403C240.798 31.547 241.42 29.9327 241.852 28.2511H245.838C244.541 30.4708 242.474 32.1928 239.987 33.0403ZM242.379 25.5605C242.487 24.6726 242.568 23.7847 242.568 22.8699C242.568 21.9551 242.487 21.0672 242.379 20.1793H246.947C247.163 21.0403 247.298 21.9417 247.298 22.8699C247.298 23.7982 247.163 24.6995 246.947 25.5605H242.379Z" fill="white"/>
<path d="M415.333 252.155C417.668 248.28 450.042 249.055 451.144 252.155C452.246 255.255 449.586 272.305 444.137 273.855C438.689 275.405 427.79 276.18 423.118 273.855C418.446 271.53 412.998 256.03 415.333 252.155Z" fill="#F2994A"/>
<defs>
<linearGradient id="paint0_linear" x1="425.451" y1="236.583" x2="425.451" y2="262.913" gradientUnits="userSpaceOnUse">
<stop stop-color="#6CEDA0"/>
<stop offset="1" stop-color="#199D56"/>
</linearGradient>
<linearGradient id="paint1_linear" x1="456.025" y1="246.32" x2="430.677" y2="253.84" gradientUnits="userSpaceOnUse">
<stop stop-color="#6CEDA0"/>
<stop offset="1" stop-color="#199D56"/>
</linearGradient>
<linearGradient id="paint2_linear" x1="442.426" y1="236.507" x2="426.633" y2="257.629" gradientUnits="userSpaceOnUse">
<stop stop-color="#6CEDA0"/>
<stop offset="1" stop-color="#199D56"/>
</linearGradient>
<linearGradient id="paint3_linear" x1="219.804" y1="101.165" x2="202.025" y2="108.756" gradientUnits="userSpaceOnUse">
<stop stop-color="#FFF8E1"/>
<stop offset="1" stop-color="#FFCC80"/>
</linearGradient>
<linearGradient id="paint4_linear" x1="190.385" y1="122.396" x2="168.74" y2="135.843" gradientUnits="userSpaceOnUse">
<stop stop-color="#FFF8E1"/>
<stop offset="1" stop-color="#FFCC80"/>
</linearGradient>
<linearGradient id="paint5_linear" x1="231.418" y1="111.794" x2="229.53" y2="143.058" gradientUnits="userSpaceOnUse">
<stop stop-color="#98D0FC"/>
<stop offset="1" stop-color="#3481D7"/>
</linearGradient>
<linearGradient id="paint6_linear" x1="273.048" y1="118.508" x2="274.38" y2="139.769" gradientUnits="userSpaceOnUse">
<stop stop-color="#FFF8E1"/>
<stop offset="1" stop-color="#FFCC80"/>
</linearGradient>
<linearGradient id="paint7_linear" x1="70.7593" y1="228.73" x2="129.792" y2="252.115" gradientUnits="userSpaceOnUse">
<stop offset="0.0642604" stop-color="#EB5757"/>
<stop offset="1" stop-color="#872727"/>
</linearGradient>
<linearGradient id="paint8_linear" x1="201.456" y1="132.597" x2="244.264" y2="183.134" gradientUnits="userSpaceOnUse">
<stop stop-color="#98D0FC"/>
<stop offset="1" stop-color="#3481D7"/>
</linearGradient>
<linearGradient id="paint9_linear" x1="116.545" y1="179.005" x2="167.901" y2="236.417" gradientUnits="userSpaceOnUse">
<stop stop-color="#EB5757"/>
<stop offset="1" stop-color="#872727"/>
</linearGradient>
<linearGradient id="paint10_linear" x1="399.582" y1="193.923" x2="276.994" y2="189.106" gradientUnits="userSpaceOnUse">
<stop stop-color="#4DDDAF"/>
<stop offset="1" stop-color="#3BC073"/>
</linearGradient>
<linearGradient id="paint11_linear" x1="314.684" y1="84.9795" x2="314.684" y2="186.753" gradientUnits="userSpaceOnUse">
<stop stop-color="#AF6CED"/>
<stop offset="1" stop-color="#5E199D"/>
</linearGradient>
</defs>
</svg>
